{
  "version": "v4",
  "repo": "borisyankov/DefinitelyTyped",
  "ref": "master",
  "path": "tools/typings",
  "bundle": "tools/typings/tsd.d.ts",
  "installed": {
    "angularjs/angular.d.ts": {
      "commit": "983126e131a2b81739053d60e4bbdbb46d6577b7"
    },
    "jquery/jquery.d.ts": {
      "commit": "983126e131a2b81739053d60e4bbdbb46d6577b7"
    },
    "angularjs/angular-route.d.ts": {
      "commit": "983126e131a2b81739053d60e4bbdbb46d6577b7"
    },
    "angularjs/angular-animate.d.ts": {
      "commit": "983126e131a2b81739053d60e4bbdbb46d6577b7"
    },
    "cryptojs/cryptojs.d.ts": {
      "commit": "8de599097a8acb3c246f9cc152f07b323c5a8b49"
    }
  }
}
